Predicting the Impact of Climate Variability on the Productivity of Key Staple Crops in Niger
…
We refine `workflows_tbl` to focus on the model names and their respective performance metrics by selecting and unnesting the results. This produces `workflows_result_tbl`, a streamlined table that directly presents the evaluation metrics for each model, facilitating an easy comparison of their predictive accuracy and effectiveness.

workflows_result_tbl <- workflows_tbl |>
  select(work_names, 
         results) |>
  unnest(results)
workflows_result_tbl 

# A tibble: 24 × 7
   work_names      .metric .estimator      mean     n   std_err .config         
   <chr>           <chr>   <chr>          <dbl> <int>     <dbl> <chr>           
 1 tree            mae     standard   31813.       10 4905.     Preprocessor1_M…
 2 tree            mape    standard      20.3      10    3.59   Preprocessor1_M…
 3 tree            rmse    standard   43756.       10 6508.     Preprocessor1_M…
 4 tree            rsq     standard       0.564    10    0.0780 Preprocessor1_M…
 5 lm_interactions mae     standard   30191.       10 3995.     Preprocessor1_M…
 6 lm_interactions mape    standard      20.3      10    1.51   Preprocessor1_M…
 7 lm_interactions rmse    standard   38176.       10 5823.     Preprocessor1_M…
 8 lm_interactions rsq     standard       0.656    10    0.0482 Preprocessor1_M…
 9 lm_steps        mae     standard   30668.       10 3295.     Preprocessor1_M…
10 lm_steps        mape    standard      21.0      10    1.15   Preprocessor1_M…
# ℹ 14 more rows
…
